Place,Name,BirthDate,Sex,BirthYear,Age,Country,State,Equipment,Division,BodyweightKg,WeightClassKg,Squat1Kg,Squat2Kg,Squat3Kg,Best3SquatKg,Bench1Kg,Bench2Kg,Bench3Kg,Best3BenchKg,Deadlift1Kg,Deadlift2Kg,Deadlift3Kg,Best3DeadliftKg,TotalKg,Event
1,Frankie Kuhn,,F,1998,25,,WV,Raw,Amateur Open,49.99,52,105.01,-114.99,114.99,114.99,67.49,72.48,77.52,77.52,110,117.48,127.5,127.5,320.01,SBD
1,Sarah Wilson #5,,F,1996,27,,WV,Wraps,Amateur Open,93.8,100,147.51,-157.49,167.51,167.51,69.99,74.98,-80.01,74.98,154.99,165.02,170.01,170.01,412.5,SBD
2,Aimee Asbury,,F,1998,25,,WV,Wraps,Amateur Open,99.61,100,139.98,152.5,159.98,159.98,89.99,94.98,-100.02,94.98,139.98,152.5,-159.98,152.5,407.51,SBD
3,Danielle Hershey,,F,1991,32,,WV,Wraps,Amateur Open,99.88,100,-142.52,-142.52,142.52,142.52,-65,72.48,77.52,77.52,142.52,152.5,-159.98,152.5,372.49,SBD
1,Stacey Hartwig,,F,1998,25,,OH,Wraps,Amateur Open,124.6,125,192.5,-204.98,-204.98,192.5,77.52,85,-92.49,85,172.5,177.49,182.48,182.48,459.99,SBD
2,Amber Hughes,,F,1995,28,,WV,Wraps,Amateur Open,116.39,125,150,154.99,157.49,157.49,69.99,80.01,-89.99,80.01,122.52,137.48,147.51,147.51,385.01,SBD
1,Nichole Smith,,F,1985,38,,OH,Raw,Amateur Submasters 35-39,59.78,60,107.5,112.49,-114.99,112.49,62.51,67.49,69.99,69.99,110,120.02,125.01,125.01,307.49,SBD
1,Laynee Stanley,,F,2005,18,,KY,Wraps,Amateur Teen 18-19,63.41,67.5,120.02,130,137.48,137.48,57.52,-60.01,-62.51,57.52,122.52,130,137.48,137.48,332.48,SBD
1,Danielle Hershey,,F,1991,32,,WV,Raw,Amateur Open,99.88,100,,,,,-65,72.48,77.52,77.52,142.52,152.5,-159.98,152.5,230.02,BD
1,Amber Hughes,,F,1995,28,,WV,Raw,Amateur Open,116.39,125,,,,,69.99,80.01,-89.99,80.01,122.52,137.48,147.51,147.51,227.48,BD
1,Allison Brown,,F,1990,33,,WV,Wraps,Pro Open,80.51,82.5,154.99,172.5,185.02,185.02,89.99,97.48,102.51,102.51,175,190.01,202.48,202.48,490.02,SBD
1,Chris Asbury,,M,1970,53,,WV,Multi-ply,Amateur Masters 50-54,102.29,110,227.48,250.02,,250.02,280,287.49,-300.01,287.49,182.48,197.49,202.48,202.48,739.99,SBD
1,Noah Pennington,,M,2006,17,,OH,Multi-ply,Amateur Teen 16-17,120.2,125,317.51,340.01,-352.49,340.01,182.48,192.5,-197.49,192.5,227.48,244.99,-262.49,244.99,777.5,SBD
1,Caleb Roberts,,M,2006,18,,VA,Multi-ply,Amateur Teen 18-19,136.89,140,190.01,210.01,230.02,230.02,159.98,172.5,182.48,182.48,175,190.01,204.98,204.98,617.48,SBD
1,Mario Rizo,,M,1975,48,,OH,Unlimited,Amateur Open,104.6,110,,,,,272.52,295.02,-317.51,295.02,,,,,295.02,B
1,Caleb Roberts,,M,2006,18,,VA,Multi-ply,Amateur Teen 18-19,136.89,140,,,,,159.98,172.5,182.48,182.48,175,190.01,204.98,204.98,387.5,BD
1,John Berry #1,,M,1997,26,,OH,Unlimited,Pro Open,88.99,90,370,397.48,410,410,-264.99,264.99,282.5,282.5,312.48,329.99,-340.01,329.99,1022.49,SBD
2,Justin Toler,,M,1987,36,,WV,Unlimited,Pro Open,87.32,90,237.5,272.52,-292.48,272.52,-182.48,182.48,219.99,219.99,182.48,227.48,237.5,237.5,730.01,SBD
1,Steven New,,M,1995,28,,WV,Multi-ply,Pro Open,98.61,100,-272.52,272.52,-295.02,272.52,182.48,199.99,227.48,227.48,-210.01,210.01,240,240,739.99,SBD
1,Travis Salmons,,M,1995,28,,WV,Unlimited,Pro Open,133.99,140,317.51,345,352.49,352.49,272.52,305,320.01,320.01,272.52,305,-317.51,305,977.49,SBD
1,Tyler Butcher,,M,1988,35,,OH,Single-ply,Pro Open,155.99,140+,477.5,522.49,,522.49,352.49,-370,,352.49,305,320.01,,320.01,1194.99,SBD
1,Danny Akers,,M,1966,57,,VA,Unlimited,Pro Masters 55-59,87.91,90,,,,,-179.99,-179.99,179.99,179.99,,,,,179.99,B
1,Nathan Price,,M,2002,21,,WV,Raw,Amateur Juniors 20-23,94.3,100,215,227.48,232.51,232.51,125.01,132.49,137.48,137.48,284.99,300.01,-307.49,300.01,670,SBD
1,Zaviae Walker,,M,1997,26,,WV,Wraps,Amateur Open,82.92,90,157.49,-172.5,182.48,182.48,105.01,114.99,-125.01,114.99,185.02,190.01,202.48,202.48,499.99,SBD
1,Jake Arthur,,M,1991,32,,WV,Raw,Amateur Open,106,110,192.5,204.98,-227.48,204.98,110,120.02,-130,120.02,240,260,-272.52,260,585,SBD
1,Brandon Rolfe,,M,1987,36,,WV,Wraps,Amateur Submasters 35-39,137.62,140,130,134.99,145.01,145.01,77.52,82.51,-89.99,82.51,154.99,170.01,179.99,179.99,407.51,SBD
1,Adam Holtsclaw,,M,2005,18,,WV,Raw,Amateur Teen 18-19,70.58,75,150,157.49,167.51,167.51,92.49,97.48,105.01,105.01,170.01,179.99,185.02,185.02,457.49,SBD
1,Tom Lyons,,M,1970,53,,WV,Raw,Amateur Masters 50-54,123.6,125,,,,,-142.52,142.52,-147.51,142.52,,,,,142.52,B
1,Hunter Bernard,,M,2007,16,,WV,Raw,Amateur Teen 16-17,86.91,90,,,,,130,137.48,-142.52,137.48,,,,,137.48,B
2,Kolton Lyons,,M,2006,17,,WV,Raw,Amateur Teen 16-17,89.49,90,,,,,92.49,-100.02,-100.02,92.49,,,,,92.49,B
1,Rick Sarver,,M,2004,20,,VA,Raw,Pro Juniors 20-23,80.69,82.5,187.52,204.98,215,215,125.01,134.99,145.01,145.01,187.52,212.51,230.02,230.02,589.99,SBD
1,Wyatt Tolliver,,M,2002,21,,WV,Raw,Pro Juniors 20-23,87.59,90,207.52,215,222.49,222.49,130,139.98,-145.01,139.98,210.01,222.49,230.02,230.02,592.48,SBD
1,Hunter McMullen,,M,2001,22,,OH,Raw,Pro Juniors 20-23,86.5,90,235.01,244.99,-252.51,244.99,159.98,167.51,-172.5,167.51,255.01,275.01,-282.5,275.01,687.51,SBD
1,James Kauff,,M,1972,51,,WV,Wraps,Pro Masters 50-54,108,110,182.48,197.49,207.52,207.52,152.5,162.48,-175,162.48,207.52,227.48,242.49,242.49,612.49,SBD
1,Michael Horton,,M,1973,50,,WV,Wraps,Pro Masters 50-54,120.38,125,240,255.01,272.52,272.52,190.01,-210.01,210.01,210.01,240,250.02,272.52,272.52,755,SBD
1,Hunter McMullen,,M,2001,22,,OH,Raw,Pro Open,86.5,90,235.01,244.99,-252.51,244.99,159.98,167.51,-172.5,167.51,255.01,275.01,-282.5,275.01,687.51,SBD
1,Michael Horton,,M,1973,50,,WV,Raw,Pro Open,120.38,125,240,255.01,272.52,272.52,190.01,-210.01,210.01,210.01,240,250.02,272.52,272.52,755,SBD
1,Jackson Wilkinson,,M,2001,23,,WV,Wraps,Pro Open,125.92,140,-199.99,199.99,-204.98,199.99,-120.02,-120.02,120.02,120.02,219.99,227.48,-272.52,227.48,547.49,SBD
1,Matthew Halstead,,M,1991,32,,WV,Raw,Pro Open,87.41,90,264.99,277.51,284.99,284.99,165.02,172.5,182.48,182.48,264.99,280,-292.48,280,747.47,SBD
2,Adam Wilcox,,M,1995,28,,WV,Raw,Pro Open,89.9,90,212.51,224.98,235.01,235.01,127.5,-134.99,134.99,134.99,199.99,207.52,215,215,585,SBD
1,Daniel Young #1,,M,1997,26,,WV,Raw,Pro Open,92.99,100,257.5,272.52,282.5,282.5,172.5,182.48,187.52,187.52,260,277.51,287.49,287.49,757.5,SBD
1,Josh Withrow,,M,1997,26,,KY,Raw,Pro Open,123.38,125,287.49,305,-320.01,305,192.5,204.98,215,215,295.02,320.01,334.98,334.98,854.98,SBD
1,Chris Carter #10,,M,1992,31,,WV,Raw,Pro Open,176.22,140+,307.49,325,-334.98,325,222.49,232.51,-240,232.51,267.48,287.49,305,305,862.51,SBD
2,Andrew Lively,,M,1992,31,,WV,Raw,Pro Open,158.98,140+,292.48,307.49,317.51,317.51,227.48,237.5,-250.02,237.5,252.51,262.49,272.52,272.52,827.49,SBD
1,Jacob Ingram,,M,2005,18,,WV,Raw,Pro Teen 18-19,116.39,125,204.98,-219.99,219.99,219.99,139.98,152.5,-162.48,152.5,204.98,219.99,227.48,227.48,600.01,SBD
