Place,Name,Sex,BirthDate,Age,Equipment,Division,BodyweightKg,WeightClassKg,Bench1Kg,Bench2Kg,Bench3Kg,Bench4Kg,Best3BenchKg,Deadlift1Kg,Deadlift2Kg,Deadlift3Kg,Deadlift4Kg,Best3DeadliftKg,TotalKg,Event,Team
1,Megan Kenrick,F,1994-04-21,29,Raw,DT Int,67.4,67.5,65,-70,-70,,65,127.5,132.5,-142.5,,132.5,197.5,BD,Tyler
1,Regina Sowell,F,1984-04-26,39,Raw,DT Open,67.22,67.5,75,-82.5,82.5,-87.5,82.5,137.5,145,-152.5,,145,227.5,BD,
1,Ronni Schaber,F,1997-09-05,26,Raw,DT Open,107.81,110,75,80,82.5,,82.5,115,-122.5,122.5,,122.5,205,BD,Pittsburg
1,Whitley Hamilton,F,1997-10-16,26,Raw,DT Open,125.01,140,60,72.5,-82.5,,72.5,165,172.5,175,,175,247.5,BD,Pittsburg
1,Sadie Matkin,F,2006-08-16,17,Raw,DT Teen,78.8,82.5,42.5,47.5,50,,50,107.5,120,-132.5,,120,170,BD,Mount Plasant
1,LaTosha Cleaver,F,1979-09-04,44,Raw,Open,109.81,110,90,95,100,,100,190,197.5,-215,,197.5,297.5,BD,Tyler
1,Audrey Hammack,F,1986-09-28,37,Raw,DT Open,106.18,110,,,,,,140,-145,145,,145,145,D,
1,Colten Browning,M,1997-10-07,26,Raw,DT Int,98.7,100,102.5,122.5,-142.5,,122.5,165,-205,205,-227.5,205,327.5,BD,Tyler
1,Matthew Herbert,M,1994-01-20,29,Raw,DT Int,117.4,125,87.5,95,97.5,-102.5,97.5,142.5,-152.5,,,142.5,240,BD,Pittsburg
1,Ryan Henson,M,1994-03-15,29,Raw,DT Int,132,140,82.5,-95,95,-105,95,132.5,165,190,-205,190,285,BD,Tyler
1,Donnie Duncan,M,1974-02-24,49,Raw,DT Master,92.26,100,90,97.5,100,,100,205,212.5,222.5,,222.5,322.5,BD,Piitsburg
1,Jesse Cleaver,M,1982-12-08,40,Raw,DT Master,113.71,125,135,140,142.5,,142.5,287.5,305,-310,,305,447.5,BD,Tyler
1,Jase Hamblin,M,2013-08-07,10,Raw,DT Novice,70.58,75,27.5,-35,-35,,27.5,62.5,75,-87.5,,75,102.5,BD,Mount Pleasant
1,Christian Kearney,M,1988-09-20,35,Raw,DT Open,67,67.5,137.5,140,,,140,297.5,-320,-320,,297.5,437.5,BD,Pittsburg
2,Karson Owen,M,2005-12-14,17,Raw,DT Open,67.5,67.5,102.5,110,-117.5,,110,192.5,200,-202.5,,200,310,BD,Mount Pleasant
1,Blaine Sowell,M,2007-07-07,16,Raw,DT Open,67.81,75,77.5,82.5,90,-92.5,90,182.5,197.5,202.5,-205,202.5,292.5,BD,
1,Joshua Tillis,M,1997-01-15,26,Raw,DT Open,110.81,125,172.5,175,-182.5,,175,257.5,272.5,-280,,272.5,447.5,BD,Tyler
2,Jesse Cleaver,M,1982-12-08,40,Raw,DT Open,113.71,125,135,140,142.5,,142.5,287.5,305,-310,,305,447.5,BD,Tyler
1,Jose Argote,M,1993-03-08,30,Raw,DT Open,131.54,140,167.5,175,185,,185,247.5,255,260,,260,445,BD,Tyler
1,Nathan Morales,M,2010-09-05,13,Raw,DT Special Olympics,51.3,52,25,27.5,30,32.5,30,25,30,32.5,35,32.5,62.5,BD,Mount Pleasant
1,Matthew Herbert,M,1994-01-20,29,Raw,DT Special Olympics,117.4,125,87.5,95,97.5,-102.5,97.5,142.5,-152.5,,,142.5,240,BD,Pittsburg
1,Wyatt Allen,M,2006-06-06,17,Raw,DT Teen,72.71,75,105,110,115,,115,180,187.5,-200,,187.5,302.5,BD,Henderson
1,Blaine Sowell,M,2007-07-07,16,Raw,DT Teen,67.81,75,77.5,82.5,90,-92.5,90,182.5,197.5,202.5,-205,202.5,292.5,BD,
2,Garrett Allen #1,M,2006-06-06,17,Raw,DT Teen,66.41,67.5,70,85,-92.5,,85,102.5,110,117.5,122.5,117.5,202.5,BD,Henderson
1,Caton Srader,M,,27,Raw,Int,83.1,90,77.5,102.5,-112.5,,102.5,117.5,150,187.5,190,187.5,290,BD,Tyler
1,Chad Murphy,M,1973-10-31,50,Raw,M2,137.9,140,145,147.5,150,,150,250,257.5,-260,,257.5,407.5,BD,Henderson
1,Abel Ramirez,M,2005-12-24,17,Raw,Novice,71.8,75,77.5,82.5,-85,,82.5,-142.5,142.5,-145,,142.5,225,BD,
1,Bobby Edmondson,M,1968-03-12,55,Raw,Open,93.8,100,145,-157.5,-157.5,,145,235,255,-272.5,,255,400,BD,Henderson
1,Logan Edmondson,M,1992-01-29,31,Raw,Open,123.2,125,160,172.5,-182.5,,172.5,282.5,302.5,-320,,302.5,475,BD,Henderson
2,Matthew Newcomer,M,1983-07-29,40,Raw,Open,124.28,125,160,-170,-170,,160,277.5,285,295,,295,455,BD,Pittsburg
1,Mario Valle,M,1974-08-16,49,Raw,DT Master,90,90,210,220,-232.5,,220,,,,,,220,B,
1,Jase Hamblin,M,2013-08-07,10,Raw,DT Novice,70.58,75,27.5,-35,-35,,27.5,,,,,,27.5,B,Mount Pleasant
1,Mario Valle,M,1974-08-16,49,Raw,DT Open,90,90,210,220,-232.5,,220,,,,,,220,B,
1,Mario Valle,M,1974-08-16,49,Raw,DT P/F/M,90,90,210,220,-232.5,,220,,,,,,220,B,
1,Jase Hamblin,M,2013-08-07,10,Raw,DT Novice,70.58,75,,,,,,62.5,75,-87.5,,75,75,D,Mount Pleasant
1,Chase Mays,M,2004-12-06,18,Raw,DT Teen,85.6,90,,,,,,227.5,250,265,-280,265,265,D,Mount Pleasant
